C:\Users\Walid\Documents\JEE\Workspace\ProjetStagePFE\ProjetStagePFE-ejb\src\main\java\tn\esprit\PIPFE\Entities\Entreprise.java
C:\Users\Walid\Documents\JEE\Workspace\ProjetStagePFE\ProjetStagePFE-ejb\src\main\java\tn\esprit\PIPFE\Entities\Soutenance.java
C:\Users\Walid\Documents\JEE\Workspace\ProjetStagePFE\ProjetStagePFE-ejb\src\main\java\tn\esprit\ProjetStagePFE\ProjetStagePFE\services\TodoServiceRemote.java
C:\Users\Walid\Documents\JEE\Workspace\ProjetStagePFE\ProjetStagePFE-ejb\src\main\java\tn\esprit\PIPFE\Entities\FichePFE.java
C:\Users\Walid\Documents\JEE\Workspace\ProjetStagePFE\ProjetStagePFE-ejb\src\main\java\tn\esprit\PIPFE\Entities\Etudiant.java
C:\Users\Walid\Documents\JEE\Workspace\ProjetStagePFE\ProjetStagePFE-ejb\src\main\java\tn\esprit\PIPFE\Entities\Admin.java
C:\Users\Walid\Documents\JEE\Workspace\ProjetStagePFE\ProjetStagePFE-ejb\src\main\java\tn\esprit\PIPFE\Entities\Encadrant.java
C:\Users\Walid\Documents\JEE\Workspace\ProjetStagePFE\ProjetStagePFE-ejb\src\main\java\tn\esprit\PIPFE\Entities\Site.java
C:\Users\Walid\Documents\JEE\Workspace\ProjetStagePFE\ProjetStagePFE-ejb\src\main\java\tn\esprit\PIPFE\Entities\FormulaireConvention.java
C:\Users\Walid\Documents\JEE\Workspace\ProjetStagePFE\ProjetStagePFE-ejb\src\main\java\tn\esprit\PIPFE\Entities\Classe.java
C:\Users\Walid\Documents\JEE\Workspace\ProjetStagePFE\ProjetStagePFE-ejb\src\main\java\tn\esprit\ProjetStagePFE\ProjetStagePFE\util\DBPopulator.java
C:\Users\Walid\Documents\JEE\Workspace\ProjetStagePFE\ProjetStagePFE-ejb\src\main\java\tn\esprit\PIPFE\Entities\Departement.java
C:\Users\Walid\Documents\JEE\Workspace\ProjetStagePFE\ProjetStagePFE-ejb\src\main\java\tn\esprit\PIPFE\Entities\User.java
C:\Users\Walid\Documents\JEE\Workspace\ProjetStagePFE\ProjetStagePFE-ejb\src\main\java\tn\esprit\PIPFE\Entities\DirecteurDeStage.java
C:\Users\Walid\Documents\JEE\Workspace\ProjetStagePFE\ProjetStagePFE-ejb\src\main\java\tn\esprit\PIPFE\Entities\HeadOfDepartment.java
C:\Users\Walid\Documents\JEE\Workspace\ProjetStagePFE\ProjetStagePFE-ejb\src\main\java\tn\esprit\ProjetStagePFE\ProjetStagePFE\persistence\Todo.java
C:\Users\Walid\Documents\JEE\Workspace\ProjetStagePFE\ProjetStagePFE-ejb\src\main\java\tn\esprit\PIPFE\Entities\Options.java
C:\Users\Walid\Documents\JEE\Workspace\ProjetStagePFE\ProjetStagePFE-ejb\src\main\java\tn\esprit\PIPFE\Services\CrudRemote.java
C:\Users\Walid\Documents\JEE\Workspace\ProjetStagePFE\ProjetStagePFE-ejb\src\main\java\tn\esprit\ProjetStagePFE\ProjetStagePFE\services\TodoService.java
C:\Users\Walid\Documents\JEE\Workspace\ProjetStagePFE\ProjetStagePFE-ejb\src\main\java\tn\esprit\PIPFE\Entities\Categorie.java
C:\Users\Walid\Documents\JEE\Workspace\ProjetStagePFE\ProjetStagePFE-ejb\src\main\java\tn\esprit\PIPFE\Entities\Ecole.java
C:\Users\Walid\Documents\JEE\Workspace\ProjetStagePFE\ProjetStagePFE-ejb\src\main\java\tn\esprit\PIPFE\Entities\Rapporteur.java
C:\Users\Walid\Documents\JEE\Workspace\ProjetStagePFE\ProjetStagePFE-ejb\src\main\java\tn\esprit\ProjetStagePFE\ProjetStagePFE\services\TodoServiceLocal.java
C:\Users\Walid\Documents\JEE\Workspace\ProjetStagePFE\ProjetStagePFE-ejb\src\main\java\tn\esprit\PIPFE\Services\CrudServices.java
C:\Users\Walid\Documents\JEE\Workspace\ProjetStagePFE\ProjetStagePFE-ejb\src\main\java\tn\esprit\PIPFE\Entities\Enseignant.java
C:\Users\Walid\Documents\JEE\Workspace\ProjetStagePFE\ProjetStagePFE-ejb\src\main\java\tn\esprit\PIPFE\Entities\EncadrantEntreprise.java
C:\Users\Walid\Documents\JEE\Workspace\ProjetStagePFE\ProjetStagePFE-ejb\src\main\java\tn\esprit\PIPFE\Entities\President.java
C:\Users\Walid\Documents\JEE\Workspace\ProjetStagePFE\ProjetStagePFE-ejb\src\main\java\tn\esprit\PIPFE\Entities\PreValidateur.java
